+++ Inwazja:

++++ Mała prywatna wojenka
Ilość misji: 002

* [[[inwazja-konspekty:160707-mala-szara-myszka|095 - 160707 - Mała, szara myszka... (KB, DK, HB)]]]
* [[[inwazja-konspekty:160713-ukrasc-ze-swiecy-zajcewow|096 - 160713 - Jak ukraść ze Świecy Zajcewów (AB, DK, HB)]]]

++++ Koniec znanej historii Inwazji
